Survival analysis by immune cells
…
Warning in fitter(X, Y, strats, offset, init, control, weights = weights, :
Ran out of iterations and did not converge

[1] "Low-grade glioma astrocytoma"

Warning: `...` is not empty.

We detected these problematic arguments:
* `needs_dots`

These dots only exist to allow future extensions and should be empty.
Did you misspecify an argument?

# A tibble: 24 x 7
   term           estimate std.error statistic   p.value conf.low conf.high
   <chr>             <dbl>     <dbl>     <dbl>     <dbl>    <dbl>     <dbl>
 1 B_cell           3.22e2    1.27e2   2.54      1.10e-2     73.8    571.  
 2 Macrophage_M1    1.62e2    2.72e1   5.97      2.36e-9    109.     216.  
 3 Macrophage_M2   -1.20e2    5.77e1  -2.08      3.73e-2   -233.      -7.07
 4 Monocyte        -1.02e2    1.94e1  -5.28      1.26e-7   -141.     -64.5 
 5 Neutrophil      -8.98e3    1.28e6  -0.00704   9.94e-1   -Inf      Inf   
 6 NK_cell         -1.79e2    6.04e1  -2.97      2.96e-3   -298.     -61.1 
 7 T_cell_CD4_n   -1.58e2    2.10e2  -0.753     4.51e-1   -570.     253.  
 8 T_cell_CD8      -3.11e6    9.27e7  -0.0335    9.73e-1   -Inf      Inf   
 9 T_cell_regul   -1.44e3    3.06e2  -4.71      2.46e-6   -Inf     -Inf   
10 Myeloid_dend   -1.47e1    1.05e1  -1.40      1.61e-1    -35.3      5.87
#  with 14 more rows
…
